{
    "Changes": [
        {
            "Action": "EditData",
            "Target": "Data/CraftingRecipes",
            "Entries": {
                "QualityConversionEngine": "336 2 338 1"
            },
            "When": { "Cost": "low" }
        },
        {
            "Action": "EditData",
            "Target": "Data/CraftingRecipes",
            "Entries": {
                "QualityConversionEngine": "336 1 337 1 338 1"
            },
            "When": { "Cost": "medium" }
        },
        {
            "Action": "EditData",
            "Target": "Data/CraftingRecipes",
            "Entries": {
                "QualityConversionEngine": "337 1 338 1 112 1"
            },
            "When": { "Cost": "high" }
        },
        {
            "Action": "EditData",
            "Target": "Data/CraftingRecipes",
            "TextOperations": [
                {
                    "Operation": "Append",
                    "Target": ["Entries", "QualityConversionEngine"],
                    "Value": "Field/QualityConversionEngine/true/Farming 2/",
                    "Delimiter": "/"
                }
            ]
        }
    ]
}