{
    "Changes": [
        {
            "Action": "EditData",
            "Target": "Data/Machines",
            "Entries": {
                "(BC)QualityConversionEngine": {
                    "OutputRules": [
                        {
                            "Id": "fishing.removequality",
                            "Triggers": [
                                {
                                    "Id": "fish",
                                    "RequiredTags": [
                                        "!quality_none",
                                        "category_fish",
                                        "!item_smoked",
                                        "!category_cooking",
                                        "!category_artisan_goods"
                                    ]
                                },
                                {
                                    "Id": "beachcombing",
                                    "RequiredTags": [
                                        "!quality_none",
                                        "forage_item_beach",
                                        "!item_smoked",
                                        "!category_cooking",
                                        "!category_artisan_goods"
                                    ]
                                }
                            ],
                            "OutputItem": [
                                {
                                    "ItemId": "DROP_IN_ID",
                                    "StackModifiers": [
                                        {
                                            "Id": "DoubleQuantity",
                                            "Condition": "ANY \"ITEM_QUALITY Input 1 1, RANDOM 0.25\" \"ITEM_QUALITY Input 2 2, RANDOM 0.5\" \"ITEM_QUALITY Input 4 4, RANDOM 1\"",
                                            "Modification": "Multiply",
                                            "Amount": 2.0,
                                            "RandomAmount": null
                                        }
                                    ],
                                    "StackModifierMode": "Stack",
                                    "CustomData": {
                                        "Junimatic.JunimoType": "Fishing"
                                    }
                                }
                            ],
                            "MinutesUntilReady": "{{query: 30*{{DurationFactors |valueAt={{query: {{Speed}}-1}}}}}}"
                        },
                        {
                            "Id": "animals.removequality",
                            "Triggers": [
                                {
                                    "Id": "removequality",
                                    "RequiredTags": [
                                        "!quality_none",
                                        "!category_cooking",
                                        "!category_artisan_goods"
                                    ],
                                    "Condition": "ANY \"ITEM_CATEGORY Input -5 -6 -14\" \"ITEM_ID Input (O)107 (O)430 (O)440\""
                                }
                            ],
                            "OutputItem": [
                                {
                                    "ItemId": "DROP_IN_ID",
                                    "StackModifiers": [
                                        {
                                            "Id": "DoubleQuantity",
                                            "Condition": "ANY \"ITEM_QUALITY Input 1 1, RANDOM 0.25\" \"ITEM_QUALITY Input 2 2, RANDOM 0.5\" \"ITEM_QUALITY Input 4 4, RANDOM 1\"",
                                            "Modification": "Multiply",
                                            "Amount": 2.0,
                                            "RandomAmount": null
                                        }
                                    ],
                                    "StackModifierMode": "Stack",
                                    "CustomData": {
                                        "Junimatic.JunimoType": "Animals"
                                    }
                                }
                            ],
                            "MinutesUntilReady": "{{query: 30*{{DurationFactors |valueAt={{query: {{Speed}}-1}}}}}}"
                        },
                        {
                            "Id": "crops.removequality",
                            "Triggers": [
                                {
                                    "Id": "removequality",
                                    "RequiredTags": [
                                        "!quality_none",
                                        "!category_cooking",
                                        "!category_artisan_goods"
                                    ],
                                    "Condition": "ANY \"ITEM_CATEGORY Input -19 -74 -75 -79 -80 -81\" \"ITEM_ID Input (O)417\""
                                }
                            ],
                            "OutputItem": [
                                {
                                    "ItemId": "DROP_IN_ID",
                                    "StackModifiers": [
                                        {
                                            "Id": "DoubleQuantity",
                                            "Condition": "ANY \"ITEM_QUALITY Input 1 1, RANDOM 0.25\" \"ITEM_QUALITY Input 2 2, RANDOM 0.5\" \"ITEM_QUALITY Input 4 4, RANDOM 1\"",
                                            "Modification": "Multiply",
                                            "Amount": 2.0,
                                            "RandomAmount": null
                                        }
                                    ],
                                    "StackModifierMode": "Stack",
                                    "CustomData": {
                                        "Junimatic.JunimoType": "Crops"
                                    }
                                }
                            ],
                            "MinutesUntilReady": "{{query: 30*{{DurationFactors |valueAt={{query: {{Speed}}-1}}}}}}"
                        }
                    ]
                }
            },
            "LogName": "Machine logic"
        }
    ]
}
